Bin Cols — bin_cols • tidybins
…
    Examples

iris %>%
bin_cols(Sepal.Width, n_bins = 5, pretty_labels = TRUE) %>%
bin_cols(Petal.Width, n_bins = 3, bin_type = c("width", "kmeans")) %>%
bin_cols(Sepal.Width, bin_type = "xgboost", target = Species, seed = 1) -> iris1

#> [01:26:57] WARNING: amalgamation/../src/learner.cc:1095: Starting in XGBoost 1.3.0, the default evaluation metric used with the objective 'multi:softprob' was changed from 'merror' to 'mlogloss'. Explicitly set eval_metric if you'd like to restore the old behavior.

#binned columns are named by original name + method abbreviation + number bins created.
#Sometimes the actual number of bins is less than n_bins if the col lacks enough variance.
iris1 %>%
print(width = Inf)

#> # A tibble: 150 × 9
#>    Sepal.Width_fr5 Sepal.Width_xg6 Sepal.Width Petal.Width_km3 Petal.Width_wi3
#>    <fct>                     <int>       <dbl>           <int>           <int>
#>  1 (3.4,4.4]                     6         3.5               1               1
#>  2 (2.7,3]                       4         3                 1               1
#>  3 (3.1,3.4]                     4         3.2               1               1
#>  4 (3,3.1]                       4         3.1               1               1
#>  5 (3.4,4.4]                     7         3.6               1               1
#>  6 (3.4,4.4]                     7         3.9               1               1
#>  7 (3.1,3.4]                     5         3.4               1               1
#>  8 (3.1,3.4]                     5         3.4               1               1
#>  9 (2.7,3]                       2         2.9               1               1
#> 10 (3,3.1]                       4         3.1               1               1
#>    Sepal.Length Petal.Length Petal.Width Species
#>           <dbl>        <dbl>       <dbl> <fct>  
#>  1          5.1          1.4         0.2 setosa 
#>  2          4.9          1.4         0.2 setosa 
#>  3          4.7          1.3         0.2 setosa 
#>  4          4.6          1.5         0.2 setosa 
#>  5          5            1.4         0.2 setosa 
#>  6          5.4          1.7         0.4 setosa 
#>  7          4.6          1.4         0.3 setosa 
#>  8          5            1.5         0.2 setosa 
#>  9          4.4          1.4         0.2 setosa 
#> 10          4.9          1.5         0.1 setosa 
#> # … with 140 more rows
…
