tidybins • tidybins
…
tibble::tibble(SALES = as.integer(rnorm(1000L, mean = 10000L, sd = 3000))) -> sales_data

sales_data %>% 
  bin_cols(SALES, bin_type = "value") -> sales_data1

sales_data1
#> # A tibble: 1,000 × 2
#>    SALES SALES_va10
#>    <int>      <int>
#>  1  5799          1
#>  2 10765          5
#>  3  2688          1
#>  4  9983          4
#>  5 11864          7
#>  6 13445          9
#>  7  4534          1
#>  8  9258          3
#>  9  9267          3
#> 10  9151          3
#> # ℹ 990 more rows
…
