MakeTidyBins • tidybins
…
library(tidybins)
suppressPackageStartupMessages(library(dplyr))

Bin Value

Binning by value is the only original binning method implemented in this package. It is inspired by the case in marketing when accounts need to be binned by their sales. For example, creating 10 bins, where each bin represent 10% of all market sales. The first bin contains the highest sales accounts, thus has the small total number of accounts, whereas the last bin contains the smallest sales accounts, thus requiring the most number of accounts per bin to reach 10% of the market sales.

tibble::tibble(SALES = as.integer(rnorm(1000L, mean = 10000L, sd = 3000))) -> sales_data

sales_data %>% 
  bin_cols(SALES, bin_type = "value") -> sales_data1

sales_data1
#> # A tibble: 1,000 × 2
#>    SALES SALES_va10
#>    <int>      <int>
#>  1  7025          1
#>  2 13334          9
#>  3 10234          5
#>  4 10130          4
#>  5 11209          6
#>  6 12952          8
#>  7 12455          8
#>  8  7536          2
#>  9 10872          5
#> 10  5566          1
#> # … with 990 more rows
…
